<?xml version="1.0" encoding="UTF-8" standalone="no"?>
<!-- Created with Inkscape (http://www.inkscape.org/) -->

<svg
   xmlns:dc="http://purl.org/dc/elements/1.1/"
   xmlns:cc="http://creativecommons.org/ns#"
   xmlns:rdf="http://www.w3.org/1999/02/22-rdf-syntax-ns#"
   xmlns:svg="http://www.w3.org/2000/svg"
   xmlns="http://www.w3.org/2000/svg"
   xmlns:sodipodi="http://sodipodi.sourceforge.net/DTD/sodipodi-0.dtd"
   xmlns:inkscape="http://www.inkscape.org/namespaces/inkscape"
   width="210mm"
   height="297mm"
   viewBox="0 0 210 297"
   version="1.1"
   id="svg8"
   inkscape:version="0.92.4 (unknown)"
   sodipodi:docname="binary_abacus10.svg">
  <defs
     id="defs2" />
  <sodipodi:namedview
     id="base"
     pagecolor="#ffffff"
     bordercolor="#666666"
     borderopacity="1.0"
     inkscape:pageopacity="0.0"
     inkscape:pageshadow="2"
     inkscape:zoom="2.1824283"
     inkscape:cx="311.39647"
     inkscape:cy="933.54712"
     inkscape:document-units="mm"
     inkscape:current-layer="layer1"
     showgrid="false"
     inkscape:window-width="1920"
     inkscape:window-height="986"
     inkscape:window-x="1920"
     inkscape:window-y="33"
     inkscape:window-maximized="1" />
  <metadata
     id="metadata5">
    <rdf:RDF>
      <cc:Work
         rdf:about="">
        <dc:format>image/svg+xml</dc:format>
        <dc:type
           rdf:resource="http://purl.org/dc/dcmitype/StillImage" />
        <dc:title></dc:title>
      </cc:Work>
    </rdf:RDF>
  </metadata>
  <g
     inkscape:label="Layer 1"
     inkscape:groupmode="layer"
     id="layer1">
    <rect
       style="opacity:1;fill:#4d4d4d;fill-opacity:1;stroke:#afafaf;stroke-width:0.26499999;stroke-miterlimit:4;stroke-dasharray:0, 2.91499996;stroke-dashoffset:0;stroke-opacity:0.55663428"
       id="rect829"
       width="6.7862873"
       height="34.729836"
       x="28.143152"
       y="30.139112" />
    <rect
       style="opacity:1;fill:#4d4d4d;fill-opacity:1;stroke:#afafaf;stroke-width:0.26499999;stroke-miterlimit:4;stroke-dasharray:0, 2.91499996;stroke-dashoffset:0;stroke-opacity:0.55663428"
       id="rect815"
       width="158.47984"
       height="9.9798384"
       x="15.169355"
       y="59.879032" />
    <rect
       style="opacity:1;fill:#4d4d4d;fill-opacity:1;stroke:#afafaf;stroke-width:0.26499999;stroke-miterlimit:4;stroke-dasharray:0, 2.91499996;stroke-dashoffset:0;stroke-opacity:0.55663428"
       id="rect817"
       width="6.7862873"
       height="34.729836"
       x="135.92542"
       y="30.139112" />
    <rect
       y="30.139112"
       x="117.96172"
       height="34.729836"
       width="6.7862873"
       id="rect819"
       style="opacity:1;fill:#4d4d4d;fill-opacity:1;stroke:#afafaf;stroke-width:0.26499999;stroke-miterlimit:4;stroke-dasharray:0, 2.91499996;stroke-dashoffset:0;stroke-opacity:0.55663428" />
    <rect
       style="opacity:1;fill:#4d4d4d;fill-opacity:1;stroke:#afafaf;stroke-width:0.26499999;stroke-miterlimit:4;stroke-dasharray:0, 2.91499996;stroke-dashoffset:0;stroke-opacity:0.55663428"
       id="rect821"
       width="6.7862873"
       height="34.729836"
       x="99.997993"
       y="30.139112" />
    <rect
       y="30.139112"
       x="82.034286"
       height="34.729836"
       width="6.7862873"
       id="rect823"
       style="opacity:1;fill:#4d4d4d;fill-opacity:1;stroke:#afafaf;stroke-width:0.26499999;stroke-miterlimit:4;stroke-dasharray:0, 2.91499996;stroke-dashoffset:0;stroke-opacity:0.55663428" />
    <rect
       style="opacity:1;fill:#4d4d4d;fill-opacity:1;stroke:#afafaf;stroke-width:0.26499999;stroke-miterlimit:4;stroke-dasharray:0, 2.91499996;stroke-dashoffset:0;stroke-opacity:0.55663428"
       id="rect825"
       width="6.7862873"
       height="34.729836"
       x="64.070572"
       y="30.139112" />
    <rect
       y="30.139112"
       x="46.106865"
       height="34.729836"
       width="6.7862873"
       id="rect827"
       style="opacity:1;fill:#4d4d4d;fill-opacity:1;stroke:#afafaf;stroke-width:0.26499999;stroke-miterlimit:4;stroke-dasharray:0, 2.91499996;stroke-dashoffset:0;stroke-opacity:0.55663428" />
    <rect
       y="30.139112"
       x="153.88911"
       height="34.729836"
       width="6.7862873"
       id="rect831"
       style="opacity:1;fill:#4d4d4d;fill-opacity:1;stroke:#afafaf;stroke-width:0.26499999;stroke-miterlimit:4;stroke-dasharray:0, 2.91499996;stroke-dashoffset:0;stroke-opacity:0.55663428" />
    <path
       style="opacity:1;fill:#ff0000;fill-opacity:1;stroke:#afafaf;stroke-width:0.26499999;stroke-miterlimit:4;stroke-dasharray:0, 2.91499996;stroke-dashoffset:0;stroke-opacity:0.55663428"
       id="path843"
       sodipodi:type="arc"
       sodipodi:cx="13.883251"
       sodipodi:cy="34.823166"
       sodipodi:rx="6.7862902"
       sodipodi:ry="6.7862902"
       sodipodi:start="0.0039246548"
       sodipodi:end="0"
       sodipodi:open="true"
       d="m 20.669489,34.8498 a 6.7862902,6.7862902 0 0 1 -6.806213,6.759627 6.7862902,6.7862902 0 0 1 -6.7663019,-6.799578 6.7862902,6.7862902 0 0 1 6.7929359,-6.77297 6.7862902,6.7862902 0 0 1 6.779631,6.786287" />
    <path
       d="m 56.286246,39.699138 a 6.7862902,6.7862902 0 0 1 -6.806214,6.759627 6.7862902,6.7862902 0 0 1 -6.766301,-6.799577 6.7862902,6.7862902 0 0 1 6.792935,-6.77297 6.7862902,6.7862902 0 0 1 6.779632,6.786286"
       sodipodi:open="true"
       sodipodi:end="0"
       sodipodi:start="0.0039246548"
       sodipodi:ry="6.7862902"
       sodipodi:rx="6.7862902"
       sodipodi:cy="39.672504"
       sodipodi:cx="49.500008"
       sodipodi:type="arc"
       id="path845"
       style="opacity:1;fill:#ff0000;fill-opacity:1;stroke:#afafaf;stroke-width:0.26499999;stroke-miterlimit:4;stroke-dasharray:0, 2.91499996;stroke-dashoffset:0;stroke-opacity:0.55663428" />
    <path
       style="opacity:1;fill:#ff0000;fill-opacity:1;stroke:#afafaf;stroke-width:0.26499999;stroke-miterlimit:4;stroke-dasharray:0, 2.91499996;stroke-dashoffset:0;stroke-opacity:0.55663428"
       id="path847"
       sodipodi:type="arc"
       sodipodi:cx="49.500008"
       sodipodi:cy="53.129414"
       sodipodi:rx="6.7862902"
       sodipodi:ry="6.7862902"
       sodipodi:start="0.0039246548"
       sodipodi:end="0"
       sodipodi:open="true"
       d="m 56.286246,53.156047 a 6.7862902,6.7862902 0 0 1 -6.806214,6.759627 6.7862902,6.7862902 0 0 1 -6.766301,-6.799577 6.7862902,6.7862902 0 0 1 6.792935,-6.77297 6.7862902,6.7862902 0 0 1 6.779632,6.786287" />
    <path
       d="m 20.669489,34.8498 a 6.7862902,6.7862902 0 0 1 -6.806213,6.759627 6.7862902,6.7862902 0 0 1 -6.7663019,-6.799578 6.7862902,6.7862902 0 0 1 6.7929359,-6.77297 6.7862902,6.7862902 0 0 1 6.779631,6.786287"
       sodipodi:open="true"
       sodipodi:end="0"
       sodipodi:start="0.0039246548"
       sodipodi:ry="6.7862902"
       sodipodi:rx="6.7862902"
       sodipodi:cy="34.823166"
       sodipodi:cx="13.883251"
       sodipodi:type="arc"
       id="path849"
       style="opacity:1;fill:#ff0000;fill-opacity:1;stroke:#afafaf;stroke-width:0.26499999;stroke-miterlimit:4;stroke-dasharray:0, 2.91499996;stroke-dashoffset:0;stroke-opacity:0.55663428" />
    <text
       xml:space="preserve"
       style="font-style:normal;font-variant:normal;font-weight:normal;font-stretch:normal;font-size:7.05555534px;line-height:1.25;font-family:sans-serif;-inkscape-font-specification:'sans-serif, Normal';font-variant-ligatures:normal;font-variant-caps:normal;font-variant-numeric:normal;font-feature-settings:normal;text-align:start;letter-spacing:0px;word-spacing:0px;writing-mode:lr-tb;text-anchor:start;fill:#000000;fill-opacity:1;stroke:none;stroke-width:0.26458332"
       x="30.187126"
       y="21.365068"
       id="text891"><tspan
         sodipodi:role="line"
         id="tspan889"
         x="30.187126"
         y="21.365068"
         style="stroke-width:0.26458332">1</tspan></text>
    <text
       xml:space="preserve"
       style="font-style:normal;font-variant:normal;font-weight:normal;font-stretch:normal;font-size:7.05555534px;line-height:1.25;font-family:sans-serif;-inkscape-font-specification:'sans-serif, Normal';font-variant-ligatures:normal;font-variant-caps:normal;font-variant-numeric:normal;font-feature-settings:normal;text-align:start;letter-spacing:0px;word-spacing:0px;writing-mode:lr-tb;text-anchor:start;fill:#000000;fill-opacity:1;stroke:none;stroke-width:0.26458332"
       x="46.068043"
       y="21.411577"
       id="text895"><tspan
         sodipodi:role="line"
         id="tspan893"
         x="46.068043"
         y="21.411577"
         style="stroke-width:0.26458332">2</tspan></text>
    <text
       xml:space="preserve"
       style="font-style:normal;font-variant:normal;font-weight:normal;font-stretch:normal;font-size:7.05555534px;line-height:1.25;font-family:sans-serif;-inkscape-font-specification:'sans-serif, Normal';font-variant-ligatures:normal;font-variant-caps:normal;font-variant-numeric:normal;font-feature-settings:normal;text-align:start;letter-spacing:0px;word-spacing:0px;writing-mode:lr-tb;text-anchor:start;fill:#000000;fill-opacity:1;stroke:none;stroke-width:0.26458332"
       x="62.06609"
       y="21.365068"
       id="text899"><tspan
         sodipodi:role="line"
         id="tspan897"
         x="62.06609"
         y="21.365068"
         style="stroke-width:0.26458332">4</tspan></text>
    <text
       xml:space="preserve"
       style="font-style:normal;font-variant:normal;font-weight:normal;font-stretch:normal;font-size:7.05555534px;line-height:1.25;font-family:sans-serif;-inkscape-font-specification:'sans-serif, Normal';font-variant-ligatures:normal;font-variant-caps:normal;font-variant-numeric:normal;font-feature-settings:normal;text-align:start;letter-spacing:0px;word-spacing:0px;writing-mode:lr-tb;text-anchor:start;fill:#000000;fill-opacity:1;stroke:none;stroke-width:0.26458332"
       x="78.239838"
       y="21.361622"
       id="text903"><tspan
         sodipodi:role="line"
         id="tspan901"
         x="78.239838"
         y="21.361622"
         style="stroke-width:0.26458332">8</tspan></text>
    <text
       xml:space="preserve"
       style="font-style:normal;font-variant:normal;font-weight:normal;font-stretch:normal;font-size:7.05555534px;line-height:1.25;font-family:sans-serif;-inkscape-font-specification:'sans-serif, Normal';font-variant-ligatures:normal;font-variant-caps:normal;font-variant-numeric:normal;font-feature-settings:normal;text-align:start;letter-spacing:0px;word-spacing:0px;writing-mode:lr-tb;text-anchor:start;fill:#000000;fill-opacity:1;stroke:none;stroke-width:0.26458332"
       x="94.031189"
       y="21.361622"
       id="text907"><tspan
         sodipodi:role="line"
         id="tspan905"
         x="94.031189"
         y="21.361622"
         style="stroke-width:0.26458332">16</tspan></text>
    <text
       xml:space="preserve"
       style="font-style:normal;font-variant:normal;font-weight:normal;font-stretch:normal;font-size:7.05555534px;line-height:1.25;font-family:sans-serif;-inkscape-font-specification:'sans-serif, Normal';font-variant-ligatures:normal;font-variant-caps:normal;font-variant-numeric:normal;font-feature-settings:normal;text-align:start;letter-spacing:0px;word-spacing:0px;writing-mode:lr-tb;text-anchor:start;fill:#000000;fill-opacity:1;stroke:none;stroke-width:0.26458332"
       x="114.59055"
       y="21.361622"
       id="text911"><tspan
         sodipodi:role="line"
         id="tspan909"
         x="114.59055"
         y="21.361622"
         style="stroke-width:0.26458332">32</tspan></text>
    <text
       xml:space="preserve"
       style="font-style:normal;font-variant:normal;font-weight:normal;font-stretch:normal;font-size:7.05555534px;line-height:1.25;font-family:sans-serif;-inkscape-font-specification:'sans-serif, Normal';font-variant-ligatures:normal;font-variant-caps:normal;font-variant-numeric:normal;font-feature-settings:normal;text-align:start;letter-spacing:0px;word-spacing:0px;writing-mode:lr-tb;text-anchor:start;fill:#000000;fill-opacity:1;stroke:none;stroke-width:0.26458332"
       x="134.93286"
       y="21.361622"
       id="text915"><tspan
         sodipodi:role="line"
         id="tspan913"
         x="134.93286"
         y="21.361622"
         style="stroke-width:0.26458332">64</tspan></text>
    <text
       xml:space="preserve"
       style="font-style:normal;font-variant:normal;font-weight:normal;font-stretch:normal;font-size:7.05555534px;line-height:1.25;font-family:sans-serif;-inkscape-font-specification:'sans-serif, Normal';font-variant-ligatures:normal;font-variant-caps:normal;font-variant-numeric:normal;font-feature-settings:normal;text-align:start;letter-spacing:0px;word-spacing:0px;writing-mode:lr-tb;text-anchor:start;fill:#000000;fill-opacity:1;stroke:none;stroke-width:0.26458332"
       x="72.858482"
       y="82.05307"
       id="text961"><tspan
         sodipodi:role="line"
         id="tspan959"
         x="72.858482"
         y="82.05307"
         style="stroke-width:0.26458332">Counting up</tspan></text>
  </g>
</svg>
